87588 966944
48237 50857
847196 749185
93188 465260
403735 437530
304762 363173
269508 413177
948052 691252
928309 947496
974969 244947
955943 84411
181484 329343
195173 125710
358544 990013
406204 674560
900708 556359
724208 236829
43136 627955
955922 393075
166456 900865
362463 495772
400145 603592
918365 10069
456021 997724
161159 543728
226709 983138
158336 339410
894535 447765
817394 977850
73492 301465
957850 744694
467278 832360
468599 207132
234235 554552
596509 52326
918695 247677
860519 138161
201703 780815
505323 861470
745712 491636
918514 808453
192482 663956
708278 472065
630343 413569
401571 922474
530583 57744
915567 875464
581658 39573
349033 199096
925108 703800
503192 778729
184376 220823
308517 655245
467715 218951
345451 35806
365164 383410
247461 562611
305907 737179
742993 202236
504380 400812
86473 112402
703181 235175
143505 395007
118954 925504
228967 107508
911874 28989
808925 251115
401692 816585
937693 667037
256645 411180
592504 441935
774311 73380
934615 916110
292180 127393
433903 385326
84381 610280
892463 587031
987592 833391
926872 699661
975493 319127
766057 413872
523668 733430
642441 521946
294310 704693
738570 822974
480456 561171
741809 440562
52865 231564
713701 596725
364655 289661
669848 701444
235703 373503
164535 805358
802308 74301
908504 285945
965538 168461
683910 157685
194202 339687
439664 830031
235429 860605
10100 979258
310244 810608
945791 179536
940188 853509
135063 231004
480528 814062
173323 848339
113011 752696
449988 582262
461055 222744
410372 723251
566900 560596
171867 715444
860654 532867
259875 894376
739869 399086
74501 533866
638018 740208
755190 914373
502018 965967
652074 663898
629779 79249
340944 219705
399932 883826
83805 907555
742998 477377
961205 532382
599054 337806
254718 537573
302508 274219
441564 64886
354028 637060
779875 835749
406716 559994
809518 390843
265270 693301
831596 11601
596666 644242
949845 129091
946667 128347
408316 66182
591646 626758
503759 624967
495517 662357
638556 206770
79392 722742
799866 857324
542545 431702
84191 923700
892667 760812
261071 88609
720498 877720
628901 719387
372305 334363
149668 720901
546081 904232
458393 199538
351107 482790
953521 957406
623243 195670
947415 363155
720695 485436
385822 101777
95272 633765
945927 338619
815982 490418
526373 6923
548679 823005
720432 10284
706880 806302
761094 583145
312231 700687
881473 73586
437581 229160
628708 29672
597580 537427
459040 180448
704953 177152
586946 187852
159691 117815
349333 486164
164238 289556
205347 471776
560465 192016
523565 105935
3237 288846
557365 890502
583840 173219
569447 677721
545248 9413
818084 633773
532400 987361
379225 546094
404900 902204
644972 276221
181021 623846
13263 850685
906745 275470
382491 244495
556156 467442
771841 852733
224172 245464
86478 799364
337363 879038
667511 413768
206370 215470
417440 364009
711917 453802
520238 335375
858100 262909
979030 111496
253829 182042
101824 978414
814906 84021
597227 218771
597607 130217
997864 31219
892103 553468
503681 403892
168902 957609
268978 817713
610910 295898
986423 365353
561786 724799
443421 728937
577485 723789
971771 335503
151240 933754
486540 408396
90935 203083
48048 846865
87011 615252
553064 377876
17237 232675
70245 482710
470415 728192
24710 454747
463037 701299
1891 58949
668435 629506
421424 907106
606645 453329
888535 354114
336593 705164
783136 77247
394642 644470
892306 502258
185090 801310
304263 791760
