1523 1729 180
3426 9832 262
7891 8123 252
23456 34567 311
1234 5678 238
987 3456 217
654 12345 268
789 23456 279
5678 98765 351
1234 56789 340
123 789 171
456 2345 183
789 12345 268
1234 5678 238
23456 98765 351
12345 67890 340
4567 78901 351
123 567 144
789 2345 183
123 456 144
2345 6789 262
1234 56789 340
456 12345 268
23456 78901 351
123 234 128
789 1234 182
123 5678 238
23456 56789 340
12345 78901 351
4567 23456 279
123 2345 183
789 12345 268
1234 5678 238
23456 78901 351
12345 67890 340
4567 78901 351
123 4567 238
789 12345 268
123 2345 183
2345 6789 262
1234 56789 340
456 12345 268
23456 78901 351
123 234 128
789 1234 182
123 5678 238
23456 56789 340
12345 78901 351
4567 23456 279
123 2345 183
789 12345 268
1234 5678 238
23456 78901 351
12345 67890 340
4567 78901 351
123 4567 238
789 12345 268
123 2345 183
2345 6789 262
1234 56789 340
456 12345 268
23456 78901 351
123 234 128
789 1234 182
123 5678 238
23456 56789 340
12345 78901 351
4567 23456 279
123 2345 183
789 12345 268
1234 5678 238
23456 78901 351
12345 67890 340
4567 78901 351
123 4567 238
789 12345 268
123 2345 183
2345 6789 262
1234 56789 340
456 12345 268
23456 78901 351
123 234 128
789 1234 182
123 5678 238
23456 56789 340
12345 78901 351
4567 23456 279
123 2345 183
789 12345 268
1234 5678 238
23456 78901 351
12345 67890 340
4567 78901 351
123 4567 238
789 12345 268
123 2345 183
2345 6789 262
1234 56789 340
456 12345 268
23456 78901 351
123 234 128
789 1234 182
123 5678 238
23456 56789 340
12345 78901 351
4567 23456 279
123 2345 183
789 12345 268
1234 5678 238
23456 78901 351
12345 67890 340
4567 78901 351
123 4567 238
789 12345 268
123 2345 183
2345 6789 262
1234 56789 340
456 12345 268
23456 78901 351
123 234 128
789 1234 182
123 5678 238
23456 56789 340
12345 78901 351
4567 23456 279
123 2345 183
789 12345 268
1234 5678 238
23456 78901 351
12345 67890 340
4567 78901 351
123 4567 238
789 12345 268
123 2345 183
2345 6789 262
1234 56789 340
456 12345 268
23456 78901 351
123 234 128
789 1234 182
123 5678 238
23456 56789 340
12345 78901 351
4567 23456 279
123 2345 183
789 12345 268
1234 5678 238
23456 78901 351
12345 67890 340
4567 78901 351
123 4567 238
789 12345 268
123 2345 183
2345 6789 262
1234 56789 340
456 12345 268
23456 78901 351
123 234 128
789 1234 182
123 5678 238
23456 56789 340
12345 78901 351
4567 23456 279
123 2345 183
789 12345 268
1234 5678 238
23456 78901 351
12345 67890 340
4567 78901 351
123 4567 238
789 12345 268
123 2345 183
2345 6789 262
1234 56789 340
456 12345 268
23456 78901 351
123 234 128
789 1234 182
123 5678 238
23456 56789 340
12345 78901 351
4567 23456 279
123 2345 183
789 12345 268
1234 5678 238
23456 78901 351
12345 67890 340
4567 78901 351
123 4567 238
789 12345 268
123 2345 183
2345 6789 262
1234 56789 340
456 12345 268
23456 78901 351
123 234 128
789 1234 182
123 5678 238
23456 56789 340
12345 78901 351
