1523 1729
3426 9832
7891 8123
23456 34567
1234 5678
987 3456
654 12345
789 23456
5678 98765
1234 56789
123 789
456 2345
789 12345
1234 5678
23456 98765
12345 67890
4567 78901
123 567
789 2345
123 456
2345 6789
1234 56789
456 12345
23456 78901
123 234
789 1234
123 5678
23456 56789
12345 78901
4567 23456
123 2345
789 12345
1234 5678
23456 78901
12345 67890
4567 78901
123 4567
789 12345
123 2345
2345 6789
1234 56789
456 12345
23456 78901
123 234
789 1234
123 5678
23456 56789
12345 78901
4567 23456
123 2345
789 12345
1234 5678
23456 78901
12345 67890
4567 78901
123 4567
789 12345
123 2345
2345 6789
1234 56789
456 12345
23456 78901
123 234
789 1234
123 5678
23456 56789
12345 78901
4567 23456
123 2345
789 12345
1234 5678
23456 78901
12345 67890
4567 78901
123 4567
789 12345
123 2345
2345 6789
1234 56789
456 12345
23456 78901
123 234
789 1234
123 5678
23456 56789
12345 78901
4567 23456
123 2345
789 12345
1234 5678
23456 78901
12345 67890
4567 78901
123 4567
789 12345
123 2345
2345 6789
1234 56789
456 12345
23456 78901
123 234
789 1234
123 5678
23456 56789
12345 78901
4567 23456
123 2345
789 12345
1234 5678
23456 78901
12345 67890
4567 78901
123 4567
789 12345
123 2345
2345 6789
1234 56789
456 12345
23456 78901
123 234
789 1234
123 5678
23456 56789
12345 78901
4567 23456
123 2345
789 12345
1234 5678
23456 78901
12345 67890
4567 78901
123 4567
789 12345
123 2345
2345 6789
1234 56789
456 12345
23456 78901
123 234
789 1234
123 5678
23456 56789
12345 78901
4567 23456
123 2345
789 12345
1234 5678
23456 78901
12345 67890
4567 78901
123 4567
789 12345
123 2345
2345 6789
1234 56789
456 12345
23456 78901
123 234
789 1234
123 5678
23456 56789
12345 78901
4567 23456
123 2345
789 12345
1234 5678
23456 78901
12345 67890
4567 78901
123 4567
789 12345
123 2345
2345 6789
1234 56789
456 12345
23456 78901
123 234
789 1234
123 5678
23456 56789
12345 78901
4567 23456
123 2345
789 12345
1234 5678
23456 78901
12345 67890
4567 78901
123 4567
789 12345
123 2345
2345 6789
1234 56789
456 12345
23456 78901
123 234
789 1234
123 5678
23456 56789
12345 78901
