909120 650687
936006 777373
939765 283980
477466 2955
426721 614944
598360 125512
749667 152145
506235 721969
264768 916998
540461 817969
462182 408207
234827 933997
441213 998007
603327 67831
53737 305894
99269 247542
200155 93635
727761 315194
429351 140499
843359 307713
841690 498574
694943 873394
701573 509083
476707 822755
24372 468043
602435 305136
130458 858866
448681 603254
722260 12195
461653 607319
222843 894360
877056 438461
562374 575404
747938 536216
957641 801935
537879 612769
958468 465409
968756 630389
813877 100183
88544 412008
8602 679720
102096 88025
679946 570990
470431 471619
723828 424185
723353 228044
625194 679632
196489 595853
55313 151829
715300 732149
541643 962279
450077 379041
256671 675750
705220 586895
433268 997645
328598 879479
5270 175697
270325 66609
847879 746215
718854 920274
243798 520438
644117 419999
719574 682107
806899 949307
480110 766513
57746 942079
740717 468294
730572 993345
904985 6737
266949 369079
224024 734004
359021 388608
643421 992710
305593 185945
61538 761546
855952 106842
821962 890010
807468 672755
97584 150808
239180 939167
908921 410508
537949 413483
997771 137097
426883 409614
893810 614149
10684 85137
695671 450671
765530 82971
343659 960646
148997 968115
367888 299687
766981 236338
53737 52290
82184 559527
395567 964832
409 648295
567554 414348
823558 701727
700036 472310
409379 540366
410145 98583
612404 152462
886177 762029
188362 989989
235872 934099
497007 6319
19324 435894
684882 469533
91478 918854
541929 968889
55610 240552
551048 508188
501513 37718
953874 171987
547464 16207
767817 697971
956969 756525
756644 472414
615406 528817
390345 245844
79983 182679
993388 756523
917102 121331
785343 80281
523836 247679
564087 228273
442440 275042
318663 984802
372737 228138
250675 904816
261735 708755
860900 710461
432217 596289
400169 226470
875435 727011
228866 455735
484731 702062
665976 628258
260128 204582
726219 30403
401891 957145
529391 952145
101750 583308
512222 54785
864155 478128
61853 885335
54662 797072
295970 463242
245457 507332
354431 973420
540392 673332
853033 243656
202238 801738
199619 448163
139644 53392
766983 172653
270479 186664
37023 210085
440138 444311
39511 149576
502408 997
124369 852477
403440 306531
168646 454967
85904 818967
611382 693347
829359 38469
34740 213841
878380 875816
91078 645134
468021 443727
496606 543646
259378 880722
966333 734356
945608 552757
622223 486525
224956 665081
288107 118620
375562 191092
530344 778492
623017 922098
414202 875222
343299 751359
594499 894596
374877 672905
734035 155900
548480 620788
421699 958252
530950 620726
69852 262558
852748 421563
808530 283494
566573 548639
851124 192496
713423 123024
502391 391763
909752 463168
750608 321379
842757 106411
372435 916131
674917 381274
990296 74378
308571 517124
230321 587375
171402 786005
997632 962391
632472 618439
147296 84277
619685 127764
817460 832854
973987 792799
612262 288082
869595 712666
195851 725039
807054 762014
115198 262758
51063 402536
113232 78767
349077 809035
515222 68296
211993 985519
343340 598605
723969 283668
526487 461867
220423 193309
909497 639745
532804 241977
794444 33409
330218 645353
744792 160218
885201 677546
392769 401215
499327 161378
599111 389209
372407 259909
496931 923095
696343 189684
484757 154931
691810 327262
377108 783908
933491 634342
754408 96860
681684 94778
44323 385835
908312 921945
733608 713363
833644 370879
785025 86028
212555 943957
722181 48477
978325 191422
139539 700100
443204 763400
288586 63403
105303 267810
786949 381236
465260 268916
674515 397204
315763 742638
562724 38430
640368 588249
144829 60640
562495 694276
582901 677367
393649 495918
747827 724762
283522 592737
402051 43960
412626 522223
700817 762870
181871 197543
992084 962848
237870 550901
130074 832151
560110 933248
960246 14170
831082 371467
862787 882931
50166 890441
770244 844141
569200 855040
381747 736569
537967 362085
632986 474576
525218 122805
79993 783167
342658 935821
316913 477916
496201 574122
293810 216459
182616 55702
251094 833514
913044 537916
896774 173291
670488 766404
934618 103707
276484 316387
962735 574383
5172 970130
11975 941671
