32105 6112 308
100866 865320 525
737376 349945 509
700577 6745 509
828685 918735 525
235958 61513 443
400396 636704 509
519569 486570 470
421876 314812 449
400158 338378 441
171387 756537 509
176975 119044 383
434645 652190 509
468893 526829 470
604241 34750 470
23732 127324 354
67553 642870 509
649247 377998 509
683872 338887 509
144239 994555 525
656510 587504 509
495769 234486 449
370433 30335 443
884872 742034 525
366232 229825 443
377193 753887 509
379827 838293 525
583334 384907 470
950746 602384 525
544252 375727 470
748686 434450 509
73334 493876 449
777662 319196 509
573914 41974 470
405464 756332 509
207953 986122 525
502428 737116 509
54978 70545 335
353701 895104 525
470720 877254 525
571083 791333 509
953734 928961 507
244593 445678 449
131771 712118 509
896184 890266 370
612231 555232 434
204948 383868 443
485264 104479 449
861651 789916 525
695310 515798 509
91289 613601 470
831777 289839 509
408329 309305 441
682513 512182 509
586204 786562 509
947567 962228 414
490419 777249 509
252703 376731 441
328946 996449 525
784150 374810 509
576664 588983 434
452394 983913 525
130284 977087 525
290492 251783 407
896930 820743 525
938877 20101 525
909028 800851 525
353622 752348 509
977076 119197 525
65010 29081 340
630304 512946 509
279644 961774 525
771530 910068 525
590009 763631 509
977861 567169 525
94046 691366 509
747693 113650 509
445404 648721 509
233421 712469 509
827902 437656 509
140043 696975 509
892693 563748 525
86139 374131 443
225426 992497 525
840826 737388 525
407151 901378 525
347416 916362 525
560247 341299 470
36103 964538 525
931231 219984 525
824132 522053 509
734767 612796 509
209218 293100 443
626111 352649 470
970694 907832 507
321180 582370 470
46254 416841 449
965952 418804 525
859027 761908 525
512428 513148 333
482746 308705 449
413984 850251 525
166709 243102 443
867959 194961 525
691343 52099 509
35991 466224 449
474979 917189 525
819465 274998 509
541521 36241 470
689669 45537 509
559323 376177 470
685068 528867 509
242983 509441 449
581965 209927 470
544192 534836 408
199204 124308 383
286609 457351 449
949841 311375 525
301322 646950 509
184742 188422 347
9601 92959 351
897382 711729 525
234566 664659 509
934156 926912 476
409886 936488 525
729880 588820 509
969725 952092 414
53927 978172 525
580411 815861 509
677579 941137 525
20930 581866 470
411932 174393 449
20775 393959 443
593916 598617 372
729257 652113 504
699815 558692 509
985529 30442 525
334211 721844 509
270409 395309 441
631478 854200 525
897209 353307 525
529814 90458 470
924909 58944 525
956922 512727 525
518268 197018 470
17104 235996 443
185149 636053 509
27845 708902 509
70787 172888 383
849300 529070 525
18989 517848 470
713409 765088 424
158184 704254 509
857659 84454 525
630645 135509 509
623089 36356 470
759561 79613 509
365307 167263 443
56320 220720 386
980615 997363 427
642163 6462 509
220499 298528 443
157764 849496 525
377058 608929 470
182276 710294 509
325684 646002 509
916414 323236 525
552428 998615 525
671303 187968 509
880171 843015 432
292010 64381 443
496575 689825 509
520355 702878 509
969689 46608 525
426420 688668 509
968878 622693 525
984490 723030 525
841647 623500 525
129743 425397 449
423503 333089 449
992189 85151 525
858596 68175 525
449892 728621 509
155139 998336 525
938897 883274 476
598939 242647 470
866164 680240 525
212101 436581 449
259857 589340 470
926976 919925 445
165656 174207 352
744729 546401 509
76600 430827 449
194248 911465 525
693157 990138 525
966476 870436 507
943409 914343 507
345113 877572 525
728192 312514 509
363455 926511 525
966333 548458 525
671232 749923 504
670890 138737 509
12169 63284 340
992701 663290 525
113762 41839 354
502355 263063 449
121461 112139 349
267029 161202 443
381235 151348 443
359369 958961 525
91349 284330 443
762934 949499 525
96958 964873 525
82648 613392 470
481563 524084 470
439005 23091 449
834931 963924 525
226964 895570 525
220709 810290 509
332648 234470 407
774638 59254 509
962589 44661 525
941791 942803 339
660893 751820 504
980524 133419 525
593113 555317 434
366771 945487 525
836287 360328 509
472578 1104 449
265421 244775 407
601055 847305 525
61625 856025 525
992400 1771 525
113794 41614 354
298751 148055 443
121405 948104 525
935556 231474 525
929158 721221 525
384644 212369 443
427385 286063 449
702704 627828 442
12305 184741 383
276551 359306 441
