953384 957049
643126 911116
358275 819904
502992 988433
646613 919434
677519 961096
866166 891781
868718 957214
997307 998309
119791 889783
375557 978582
45216 66980
119040 971642
212138 815970
789532 796349
613620 805858
102584 959473
719848 734317
587620 847291
948367 969724
823128 999532
729649 973784
195458 396595
995912 996023
686992 816750
258956 384871
424469 809812
425573 456652
484410 926603
69732 789511
512045 566683
71764 468349
347025 779558
839387 994964
713871 977076
702791 793743
869801 955088
937207 952189
555813 985511
752008 801666
978078 981121
749884 840348
548603 844945
576968 602485
690507 990341
778695 880061
217521 282605
262105 748717
291582 601768
807187 960540
805232 813033
615322 768840
440385 685846
967674 975533
936917 974866
476792 750046
955571 986824
620326 971369
839409 881765
209306 397061
445128 495103
301577 921614
683017 870355
510059 966757
98514 862454
865430 955914
291324 885712
476152 693144
73301 858361
12648 394004
892795 987239
78498 434567
781916 976879
162528 646104
153599 529793
767188 896541
11619 14299
600730 901931
436191 985283
90155 579690
37890 364847
390002 424093
840460 945701
922749 957587
295565 630690
813371 930918
86246 449051
78609 521701
661426 893706
732530 842570
863828 907894
225865 320948
859479 908465
733034 989171
442472 616366
305313 827344
565189 854067
232892 597715
343094 879709
15674 950344
698736 784356
282130 306442
344382 728238
276108 291796
267466 275666
732468 888234
668997 670251
590255 952133
821998 891933
763855 996770
947329 981122
696690 839337
51432 134290
80346 863966
810596 997104
236401 849319
264639 987547
54749 690094
382752 930220
840155 884119
158888 669325
13546 577367
688178 706464
262120 596779
526508 609400
962834 981098
516207 954482
769550 902964
247203 466402
880054 884557
201942 829441
37190 940384
131876 977162
583508 614023
974365 998067
607508 652783
92145 760369
501097 536485
806277 939226
662981 865679
163899 542212
814382 950397
212936 715213
335996 903841
832787 964137
363417 430954
660287 862981
251587 724189
102421 442530
973413 974642
211216 398552
443489 996908
178820 825953
38804 405126
259993 577966
81124 710540
634635 894190
50987 938839
79745 868474
687684 854943
760082 956988
291670 616202
831007 996662
243406 921405
413303 936477
631465 908149
821383 986063
660442 696985
761803 833718
437375 626913
106220 347296
231030 945072
794194 973021
688854 709884
432441 835342
366415 656881
636376 762942
291411 690516
833614 969311
629325 853721
845676 859948
234819 493015
115235 420021
393602 749828
523030 915928
371424 749144
20640 352101
233430 333592
156712 549401
915593 991750
564449 895881
207392 315883
964119 997258
117917 926110
101850 966905
851270 978222
31495 360808
802830 804749
885353 996651
783044 959187
291542 837360
984211 995042
954861 958618
517901 610845
81842 495525
928015 942291
740349 915223
388288 921506
420787 643163
685281 708233
939930 984244
803603 839830
406344 464254
199881 957716
261031 323905
890427 978592
924093 926200
113027 364752
759753 878731
909151 924048
649280 882950
419999 634130
883034 900530
805935 891212
303280 993257
581425 745845
633377 677344
576297 817356
536037 649005
814241 917711
138286 660903
937755 982888
192701 561988
205918 581199
50627 715775
924416 997500
955283 998150
844096 926328
300569 331756
966264 970467
810932 991626
951475 977984
9631 990609
14411 740746
256314 430099
627442 655868
435885 647913
698753 703243
117271 864820
69449 521767
