516623 867493 525
28440 91336 351
62949 888923 525
132926 96803 354
302824 613873 470
426023 366294 449
94370 339886 443
225697 948132 525
864823 81795 525
288169 974713 525
165040 253276 443
560809 775771 509
822470 906778 525
220730 141160 386
840492 211850 525
607149 816947 509
777743 638329 504
358 28119 308
72923 671320 509
640624 124742 509
767194 664939 504
645573 874881 525
836145 252938 509
259615 163911 443
691271 356912 509
283061 750624 509
99267 711389 509
761104 296005 509
87822 171655 383
139982 699175 509
203076 279504 443
534124 526377 377
829718 570462 509
401785 804603 509
38542 316705 443
35369 87425 351
168704 487132 449
477041 202085 449
567011 114956 470
976315 970104 458
529384 185096 470
928532 394629 525
504647 213199 449
825867 976396 525
535980 497704 470
182002 164485 365
464554 122316 449
258420 609058 470
328410 837082 509
959116 181512 525
804800 138416 509
905952 436676 525
667600 867842 525
946026 38198 525
236476 140644 443
628075 633351 385
865880 103165 525
559114 167090 470
198652 845844 525
923811 146422 525
775863 995566 525
676836 14366 509
12803 152381 375
974232 583623 525
742512 300873 509
632529 89966 509
316531 94739 443
379095 133802 443
288782 753375 509
590201 368970 470
675541 605950 509
414291 779207 509
301651 127709 443
306293 243134 407
989690 245810 525
800640 787641 468
324599 272319 389
997370 571145 525
976432 128640 525
677851 129717 509
253747 333614 407
500664 64558 449
433088 601969 470
752288 5109 509
766660 819368 468
156646 319752 443
592228 213706 470
159558 533504 470
779766 343427 509
137524 151185 375
273123 444767 449
685421 331011 509
307622 351370 441
379949 918968 525
333869 731184 509
951067 580838 525
205373 153566 383
23575 686666 509
111600 701633 509
143792 428695 449
601878 111517 470
36414 612309 470
856464 26452 525
450409 330650 449
636367 572074 509
581293 431265 470
24659 333721 443
41750 712526 509
367780 828493 509
456472 496266 444
223666 651807 509
445428 568117 470
89148 759923 509
193199 150411 383
403671 668955 509
849748 840178 419
379624 817153 509
489155 209546 449
237993 700931 509
127996 656118 509
237999 150526 443
266770 735740 509
498953 629531 509
632708 640362 416
603355 759445 509
3359 533754 470
479367 70948 449
590467 994951 525
17952 226407 386
71297 851928 525
357017 404895 436
607085 431077 470
843514 249579 525
483779 71360 449
567075 720336 509
542858 450603 470
538794 881635 525
853101 984308 507
361895 975636 525
924310 433983 525
33614 691118 509
941389 592058 525
54237 223781 386
903273 799012 525
942690 476612 525
584443 928836 525
750696 821796 468
524852 928715 525
935547 726671 525
790271 42306 509
375718 491245 449
835736 464569 509
366621 200001 443
140676 660333 509
102510 392846 443
739197 214936 509
269449 27803 443
965886 135130 525
230817 744100 509
782854 690518 504
129112 399549 443
25954 503344 449
499668 184805 449
949406 571973 525
165981 621126 470
253569 50968 443
311 611170 470
83872 159977 383
6030 610852 470
625161 532855 452
660471 391913 509
871877 198521 525
957944 718947 525
956466 302056 525
391454 453935 449
451655 425275 400
245394 124591 443
632672 349095 509
120894 857882 525
897276 830960 525
392814 474579 449
941344 79387 525
721285 130818 509
313762 44893 443
142245 554102 470
694411 832225 504
609948 648965 509
246484 57776 443
972110 745063 525
323172 868158 525
684625 646558 442
751839 893588 525
49744 808690 509
444745 718372 509
948456 309523 525
406344 991154 525
385908 996699 525
388543 458235 449
927361 628958 525
260879 38196 443
381685 635672 509
585149 941806 525
368315 333620 441
824161 203028 509
932497 312194 525
737780 817658 468
952902 203065 525
523766 103999 470
121162 669366 509
823555 396430 509
400257 893365 525
421297 487559 444
836848 950009 525
394571 588889 470
526968 367447 470
272912 304972 389
17161 643019 509
523526 326170 470
913738 390630 525
193095 395335 443
5821 390966 443
715970 432851 509
197670 386612 443
709461 489427 509
516771 213467 470
198973 151979 383
154613 324177 443
339013 831227 509
471678 74884 449
490905 255796 449
524904 840037 525
794895 580071 509
458681 849617 525
638619 911243 525
565411 711245 509
702225 117543 509
505899 449396 444
478772 407633 449
904031 966704 507
663494 758756 504
763671 492222 509
392199 256446 441
1866 970302 525
106946 209444 383
293825 56900 443
355709 142670 443
990044 992325 321
293855 485461 449
577261 453524 470
84619 254734 443
373967 103004 443
43972 895663 525
606924 936992 525
462829 978146 525
722581 236959 509
548961 846346 525
178983 422494 449
639213 853081 525
173170 58944 383
599574 235813 470
713297 476346 509
31735 592631 470
181499 743536 509
436853 781374 509
758771 240587 509
273962 991082 525
807145 566448 509
89557 798972 509
805092 252945 509
499421 634552 509
576698 812721 509
56238 251510 443
764228 110744 509
10771 324987 443
941314 654911 525
839391 374875 525
675536 697505 442
53107 237063 443
929032 638169 525
501243 748241 509
978380 464434 525
412393 476171 444
733904 802577 468
830756 972233 525
685597 245733 509
109139 715017 509
198708 224472 386
542062 564132 452
808936 257011 509
440144 867761 525
202799 376161 443
41305 208734 383
325616 346842 441
983836 315935 525
548030 664939 509
441927 428946 400
313595 617351 470
406596 481910 449
941008 998451 458
635885 226456 509
