516623 867493
28440 91336
62949 888923
132926 96803
302824 613873
426023 366294
94370 339886
225697 948132
864823 81795
288169 974713
165040 253276
560809 775771
822470 906778
220730 141160
840492 211850
607149 816947
777743 638329
358 28119
72923 671320
640624 124742
767194 664939
645573 874881
836145 252938
259615 163911
691271 356912
283061 750624
99267 711389
761104 296005
87822 171655
139982 699175
203076 279504
534124 526377
829718 570462
401785 804603
38542 316705
35369 87425
168704 487132
477041 202085
567011 114956
976315 970104
529384 185096
928532 394629
504647 213199
825867 976396
535980 497704
182002 164485
464554 122316
258420 609058
328410 837082
959116 181512
804800 138416
905952 436676
667600 867842
946026 38198
236476 140644
628075 633351
865880 103165
559114 167090
198652 845844
923811 146422
775863 995566
676836 14366
12803 152381
974232 583623
742512 300873
632529 89966
316531 94739
379095 133802
288782 753375
590201 368970
675541 605950
414291 779207
301651 127709
306293 243134
989690 245810
800640 787641
324599 272319
997370 571145
976432 128640
677851 129717
253747 333614
500664 64558
433088 601969
752288 5109
766660 819368
156646 319752
592228 213706
159558 533504
779766 343427
137524 151185
273123 444767
685421 331011
307622 351370
379949 918968
333869 731184
951067 580838
205373 153566
23575 686666
111600 701633
143792 428695
601878 111517
36414 612309
856464 26452
450409 330650
636367 572074
581293 431265
24659 333721
41750 712526
367780 828493
456472 496266
223666 651807
445428 568117
89148 759923
193199 150411
403671 668955
849748 840178
379624 817153
489155 209546
237993 700931
127996 656118
237999 150526
266770 735740
498953 629531
632708 640362
603355 759445
3359 533754
479367 70948
590467 994951
17952 226407
71297 851928
357017 404895
607085 431077
843514 249579
483779 71360
567075 720336
542858 450603
538794 881635
853101 984308
361895 975636
924310 433983
33614 691118
941389 592058
54237 223781
903273 799012
942690 476612
584443 928836
750696 821796
524852 928715
935547 726671
790271 42306
375718 491245
835736 464569
366621 200001
140676 660333
102510 392846
739197 214936
269449 27803
965886 135130
230817 744100
782854 690518
129112 399549
25954 503344
499668 184805
949406 571973
165981 621126
253569 50968
311 611170
83872 159977
6030 610852
625161 532855
660471 391913
871877 198521
957944 718947
956466 302056
391454 453935
451655 425275
245394 124591
632672 349095
120894 857882
897276 830960
392814 474579
941344 79387
721285 130818
313762 44893
142245 554102
694411 832225
609948 648965
246484 57776
972110 745063
323172 868158
684625 646558
751839 893588
49744 808690
444745 718372
948456 309523
406344 991154
385908 996699
388543 458235
927361 628958
260879 38196
381685 635672
585149 941806
368315 333620
824161 203028
932497 312194
737780 817658
952902 203065
523766 103999
121162 669366
823555 396430
400257 893365
421297 487559
836848 950009
394571 588889
526968 367447
272912 304972
17161 643019
523526 326170
913738 390630
193095 395335
5821 390966
715970 432851
197670 386612
709461 489427
516771 213467
198973 151979
154613 324177
339013 831227
471678 74884
490905 255796
524904 840037
794895 580071
458681 849617
638619 911243
565411 711245
702225 117543
505899 449396
478772 407633
904031 966704
663494 758756
763671 492222
392199 256446
1866 970302
106946 209444
293825 56900
355709 142670
990044 992325
293855 485461
577261 453524
84619 254734
373967 103004
43972 895663
606924 936992
462829 978146
722581 236959
548961 846346
178983 422494
639213 853081
173170 58944
599574 235813
713297 476346
31735 592631
181499 743536
436853 781374
758771 240587
273962 991082
807145 566448
89557 798972
805092 252945
499421 634552
576698 812721
56238 251510
764228 110744
10771 324987
941314 654911
839391 374875
675536 697505
53107 237063
929032 638169
501243 748241
978380 464434
412393 476171
733904 802577
830756 972233
685597 245733
109139 715017
198708 224472
542062 564132
808936 257011
440144 867761
202799 376161
41305 208734
325616 346842
983836 315935
548030 664939
441927 428946
313595 617351
406596 481910
941008 998451
635885 226456
