452763 106973 449
291871 845652 525
568452 603623 434
277947 358467 441
347619 251088 441
443855 44511 449
195400 327327 443
935256 524633 525
574829 809936 509
486820 44672 449
53676 451006 449
23799 930263 525
491888 177134 449
267991 341541 407
739133 83680 509
740663 296286 509
862936 990119 507
443983 39094 449
86719 688288 509
747403 862076 525
504067 157200 449
496616 545646 470
4352 348995 443
592027 967703 525
22008 309773 443
779596 713473 468
215232 54824 383
865316 650994 525
959493 552447 525
565337 387966 470
760544 624654 509
837872 365711 525
476089 516438 470
823048 164684 509
223050 109657 386
475370 828840 509
472224 514293 470
942557 518945 525
502318 546173 470
72835 297978 443
603001 952946 525
166220 923053 525
456236 214133 449
977915 932487 507
887094 2995 525
876706 978696 507
946021 716285 525
410770 601132 470
850154 908844 445
571652 981663 525
310965 9135 443
539585 967668 525
660883 710850 504
198397 96081 383
92929 731139 509
400481 609125 470
858330 380973 525
885907 45738 525
324372 803783 509
534886 494819 470
311519 161667 443
318124 464107 449
56182 694609 509
839398 490109 525
491482 8099 449
516074 590599 452
272152 744460 509
494279 815095 509
68121 105577 351
951280 48073 525
737961 23536 509
399425 43707 443
743265 541455 509
878169 426338 525
208531 745887 509
745070 491441 509
793963 333254 509
882209 148424 525
889280 742223 525
306145 743762 509
287478 894221 525
374377 668560 509
843284 440905 525
925385 809713 525
283649 498532 449
644053 137678 509
406727 175391 443
794932 668011 504
756217 630824 504
115660 807951 509
397109 233126 441
256862 369821 441
385172 864804 525
136050 842817 525
323715 911948 525
655251 443356 509
944366 665309 525
485545 757488 509
506111 369586 449
623949 884326 525
168564 859052 525
413585 281316 449
45309 31780 324
214731 708130 509
695403 451442 509
108644 554945 470
721465 193116 509
641704 856799 525
699482 216181 509
712409 217378 509
582062 637316 509
693168 966710 525
203010 63716 383
226032 491005 449
602457 275731 470
791785 86954 509
798875 921397 525
660388 171975 509
945520 267284 525
975587 531 525
969404 591956 525
257379 924418 525
560860 359008 470
111594 761935 509
36927 498927 449
498622 953058 525
585130 267335 470
527926 248360 470
562465 732109 509
686575 9407 509
858173 729472 525
796911 792889 468
964297 43974 525
59133 855424 525
602468 441346 470
669348 618841 509
693156 939961 525
258611 772381 509
196634 961500 525
480470 193511 449
627322 714837 504
326956 253335 407
568505 369128 470
92302 720329 509
338179 634818 509
530609 663629 509
842948 808211 525
746981 940229 525
54115 659577 509
437466 211191 449
684267 381237 509
606386 723052 509
76256 788515 509
989832 347354 525
297943 629284 509
637792 500700 509
560075 278436 470
988330 788488 525
329575 940938 525
894045 870079 445
924971 87359 525
357724 457439 449
200837 503872 449
297388 982648 525
472934 821103 509
287963 412143 449
864671 767885 525
881337 752446 525
648214 57480 509
672263 861234 525
117807 53227 354
337100 565481 470
93013 177850 383
121605 305074 443
515003 181812 470
485400 806374 509
62317 256702 443
559447 437713 470
75218 808635 509
386482 789635 509
526371 102608 470
151516 203923 383
707120 536401 509
964094 298699 525
223715 350383 443
484487 268343 449
759690 530003 509
928327 717794 525
332652 193405 443
511662 922644 525
577612 367679 470
121238 405783 443
249977 782918 509
976459 65226 525
541804 664634 509
920550 948568 507
54921 814520 509
332437 928838 525
183040 243907 443
563198 709938 509
476252 448778 444
778479 928939 525
851750 123601 525
340359 278764 389
394383 482229 449
115941 82478 354
292715 688094 509
467160 26548 449
486065 921831 525
953383 675155 525
639087 123073 509
181190 517022 470
501130 385945 449
612756 860489 525
47591 15350 324
176318 648719 509
