666852 822868 504
986297 109636 525
851221 890574 445
79195 475689 449
842238 744926 525
770006 128765 509
289352 657776 509
539726 183400 470
985894 747931 525
300766 589541 470
453742 729022 509
32610 234759 443
399279 550292 470
639717 333682 509
144756 763491 509
645139 864977 525
580285 668088 509
107460 858617 525
200946 380086 443
425431 982150 525
601695 750901 509
980720 744338 525
353391 11053 443
372418 811839 509
379609 675416 509
220657 101902 386
862938 58348 525
406048 862921 525
469153 576206 470
349699 789589 509
991304 936979 507
873838 521111 525
149460 559164 470
744238 6515 509
310880 392414 441
377565 636526 509
571746 331956 470
944317 129322 525
483793 161411 449
752896 370463 509
912091 562979 525
57796 366605 443
365602 680335 509
311828 734000 509
435288 21853 449
307109 478381 449
681505 606971 509
364987 89812 443
689605 219156 509
991104 756745 525
329037 274158 389
104118 998117 525
711747 452307 509
448864 923182 525
277287 525657 470
347025 62984 443
461109 907479 525
28887 732941 509
142279 519332 470
425944 318310 449
576072 480033 470
854959 680709 525
998268 515521 525
634808 250960 509
931968 100772 525
523615 746495 509
6416 287527 443
93568 226060 386
36931 29488 324
970054 189551 525
860622 329362 525
24498 153534 375
328353 950240 525
131362 528754 470
944583 878514 507
196970 339350 443
789370 609044 509
337334 224957 443
886320 986052 507
958184 92946 525
295340 486306 449
535099 377968 470
735345 249433 509
598625 324157 470
193168 35321 383
479449 809115 509
407091 953620 525
616216 629612 509
823043 107499 509
60876 478264 449
100178 728075 509
981931 828760 525
761929 522952 509
633038 643337 416
526930 651281 509
362327 994979 525
632763 343830 509
867696 410709 525
208268 428126 449
215308 751183 509
80063 324818 443
477163 567553 470
758207 210250 509
10192 303499 443
274886 241487 407
614973 759637 509
568886 462173 470
662799 554743 509
575814 162190 470
50374 154075 375
202778 174694 365
401154 645987 509
344303 727323 509
248120 807145 509
513556 154802 470
807920 791443 468
653913 524423 509
63943 747 340
974850 231885 525
54610 265365 443
396216 516079 470
692070 144198 509
309086 481543 449
99155 382864 443
125825 774360 509
668011 885712 525
446596 972827 525
803636 635987 504
673242 469374 509
924388 153327 525
132218 788794 509
96725 91175 333
53021 445997 449
750619 844412 525
756757 619288 509
32506 683735 509
187782 45829 383
649027 851509 525
213589 379875 443
822637 234523 509
388243 897000 525
686538 99161 509
687599 502489 509
886469 42924 525
679552 683418 367
833971 115480 509
811691 336559 509
48046 701399 509
146376 872824 525
172918 218113 386
513716 738130 509
700767 976157 525
177074 729256 509
50518 514294 470
556469 654353 509
56039 864782 525
966648 706120 525
256505 250587 363
823176 799637 450
828719 266466 509
365451 253933 441
967342 862304 507
545721 392054 470
825293 638192 504
301513 969740 525
1021 24368 282
999470 109648 525
695794 295317 509
370091 938702 525
839478 765905 525
748497 646732 504
954453 959945 383
997128 92763 525
567142 33804 470
983770 641238 525
913669 297226 525
964242 652485 525
184708 530887 470
429616 902480 525
207768 956801 525
126984 306966 443
55699 954743 525
394828 699513 509
587165 977178 525
362718 765846 509
127884 56798 354
242110 419760 449
6691 796741 509
946327 259696 525
529619 123383 470
914773 941246 507
589986 660747 509
950235 227076 525
936490 955883 507
694145 621924 509
698342 188115 509
622070 556189 447
657150 980197 525
235368 152368 443
229678 326314 443
119691 117096 336
365407 225910 443
484059 193196 449
52505 620389 470
343910 830811 509
931349 892222 476
559302 135083 470
499403 341680 449
361758 486863 449
694466 642609 442
119817 537315 470
224694 193532 386
232181 713137 509
739080 606613 509
748481 164624 509
547668 742959 509
115157 175496 383
403636 50578 443
943503 631077 525
843239 128614 525
903477 611372 525
554042 643096 509
911089 855270 476
406581 485689 449
687850 512250 509
941113 270499 525
583283 132993 470
135898 618060 470
911467 386053 525
494706 837002 509
362060 474009 449
906747 881115 445
533879 152704 470
629771 846369 525
736125 524218 509
680744 496428 509
670278 247964 509
867312 352847 525
487018 692857 509
573734 588498 434
105196 374200 443
842579 105995 525
8849 654634 509
374196 64024 443
300023 786417 509
499372 695128 509
744268 642037 504
672441 815678 504
614224 653181 509
228821 825326 509
316329 122816 443
959958 959989 352
354964 925874 525
722623 687724 504
320771 721939 509
504606 902506 525
55508 214461 383
724268 554206 509
246019 460692 449
413905 282648 449
430406 823812 509
227400 311114 443
481831 144588 449
376669 803171 509
182894 25741 383
746269 909445 525
725914 565051 509
155113 928133 525
340341 244320 407
2487 55179 340
491161 157517 449
777962 508464 509
96426 44461 351
612890 242274 470
