1 10
100 200
201 210
900 1000
114 476
665 977
281 522
163 661
315 882
41 893
554 812
374 775
439 953
851 869
57 861
479 757
275 766
122 524
280 901
737 746
445 965
95 143
161 333
403 958
80 772
713 994
148 233
594 689
118 561
521 756
834 937
30 490
276 686
72 223
799 815
654 754
744 947
951 982
866 885
162 404
268 441
146 938
497 597
116 183
909 964
571 964
361 966
557 580
784 943
33 168
826 980
347 865
467 706
993 996
286 932
646 880
31 296
250 422
884 925
282 903
733 820
114 387
506 678
172 311
857 960
689 932
616 846
10 895
835 889
654 666
455 791
838 847
454 493
487 600
432 454
93 869
766 828
887 918
798 930
166 839
609 655
365 487
362 689
871 925
33 594
389 659
182 910
642 846
240 498
154 889
133 760
191 830
434 580
413 949
398 894
824 896
654 710
835 836
253 292
843 899
240 740
172 626
59 446
482 660
670 695
196 228
691 745
86 849
137 276
268 699
737 843
778 801
136 491
784 971
673 946
903 919
383 982
641 650
697 874
853 968
840 846
620 853
536 574
975 996
881 975
913 979
86 449
91 352
47 325
534 621
125 811
674 930
32 909
22 97
820 988
195 533
745 989
268 900
887 967
773 857
630 734
211 939
51 815
242 786
223 774
619 930
190 370
735 740
837 974
322 381
74 196
464 692
703 959
512 683
335 493
393 693
790 850
855 866
70 433
91 723
573 709
900 963
551 836
51 139
793 865
459 816
271 821
444 817
56 934
27 604
160 176
937 974
72 611
556 904
98 719
678 951
921 995
739 832
883 984
184 642
439 815
769 938
733 741
776 915
681 817
519 693
234 370
455 494
572 730
779 940
638 678
845 960
389 632
544 896
479 928
268 337
860 914
497 658
985 990
285 704
656 831
105 866
340 392
