885 20
769 819
519 663
675 484
757 957
147 358
294 866
432 356
488 84
252 679
130 49
527 569
142 771
240 103
391 499
98 541
778 843
195 647
502 131
593 257
769 6
473 569
629 96
447 257
121 451
373 243
102 991
444 643
760 723
47 176
555 492
323 176
653 948
848 6
356 909
288 236
173 155
309 605
632 930
625 584
26 358
729 386
198 256
837 84
303 679
90 37
789 311
443 716
721 613
183 59
913 998
572 541
408 247
97 406
970 809
812 713
825 170
824 257
951 769
173 972
506 805
907 723
560 492
205 948
286 80
49 599
983 843
406 827
36 679
753 569
867 103
68 223
127 907
343 642
759 827
465 679
3 712
413 155
196 871
321 785
122 821
438 862
97 494
627 753
751 541
940 585
932 810
867 418
798 168
608 647
585 886
948 848
480 371
576 240
435 981
525 418
661 595
436 978
422 243
631 701
372 647
244 705
223 344
857 236
418 915
451 598
103 600
589 396
767 405
214 803
792 604
934 853
821 203
719 345
583 530
688 230
823 356
337 854
459 873
784 560
881 902
568 353
699 746
157 251
890 613
757 404
766 600
671 947
516 510
942 335
124 269
680 585
506 178
619 524
283 208
291 605
375 211
996 716
235 921
175 400
532 711
478 185
772 141
377 932
176 553
553 930
513 178
439 824
657 457
862 939
165 569
388 483
500 995
622 786
765 212
101 527
395 888
700 253
972 646
919 850
370 270
575 570
965 696
658 187
186 983
745 245
994 133
770 422
299 156
954 334
371 530
999 195
805 492
898 221
940 643
463 587
679 875
352 926
527 320
202 466
238 818
595 861
304 225
720 353
560 205
167 563
744 572
923 386
184 139
696 640
582 264
981 155
528 375
452 776
936 871
639 197
910 284
651 281
938 409
484 124
943 456
905 407
444 413
848 651
510 352
817 570
253 908
544 680
341 999
879 395
206 162
187 333
835 761
927 286
263 389
705 523
787 507
718 631
993 745
899 425
205 190
711 568
635 826
372 367
322 602
856 616
144 413
990 649
809 975
285 988
113 468
973 614
507 170
957 281
662 741
108 346
722 757
609 952
869 205
473 320
171 547
357 613
997 518
